{
  "$schema": "https://themost-framework.github.io/themost/models/2018/2/schema.json",
  "@id": "http://schema.org/PrivilegeTag",
  "name": "PrivilegeTag",
  "title": "PrivilegeTag",
  "hidden": false,
  "sealed": false,
  "abstract": false,
  "version": "1.0",
  "fields": [
    {
      "@id": "https://themost.io/schemas/id",
      "name": "id",
      "title": "ID",
      "description": "The identifier of the item.",
      "type": "Counter",
      "primary": true,
      "nullable": false
    },
    {
      "@id": "http://schema.org/additionalType",
      "name": "additionalType",
      "title": "additionalType",
      "description": "An additional type for the item, typically used for adding more specific types from external vocabularies in microdata syntax. This is a relationship between something and a class that the thing is in.",
      "type": "Text",
      "value": "javascript:return this.model.name;",
      "readonly": true
    },
    {
      "@id": "http://schema.org/alternateName",
      "name": "alternateName",
      "title": "alternateName",
      "description": "The identifier of the privilege.",
      "type": "Text"
    },
    {
      "@id": "http://schema.org/description",
      "name": "description",
      "title": "description",
      "description": "A description of the item.",
      "type": "Text"
    },
    {
      "@id": "http://schema.org/name",
      "name": "name",
      "title": "name",
      "description": "The name of the item.",
      "type": "Text"
    },
    {
      "@id": "https://themost.io/schemas/dateCreated",
      "name": "dateCreated",
      "title": "dateCreated",
      "description": "The date on which this item was created.",
      "type": "DateTime",
      "readonly": true,
      "value": "javascript:return new Date();"
    },
    {
      "@id": "https://themost.io/schemas/dateModified",
      "name": "dateModified",
      "title": "dateModified",
      "description": "The date on which this item was most recently modified.",
      "type": "DateTime",
      "readonly": true,
      "value": "javascript:return (new Date());",
      "calculation": "javascript:return (new Date());"
    },
    {
      "@id": "https://themost.io/schemas/createdBy",
      "name": "createdBy",
      "title": "createdBy",
      "description": "Created by user.",
      "type": "User",
      "readonly": true,
      "value": "javascript:return this.user();"
    },
    {
      "@id": "https://themost.io/schemas/modifiedBy",
      "name": "modifiedBy",
      "title": "modifiedBy",
      "description": "Last modified by user.",
      "type": "User",
      "readonly": true,
      "value": "javascript:return this.user();",
      "calculation": "javascript:return this.user();"
    }
  ],
  "constraints": [
    {
      "type": "unique",
      "description": "Name must be unique across different records",
      "fields": ["name"]
    }
  ],
  "eventListeners": []
}
